^C:\USERS\WOLFF\DESKTOP\LUNACH1_10\LUNACH1_10\COMMON\D3DAPP.CPP
/c /I..\LunaW8\Common /ZI /nologo /W3 /WX- /Od /Oy- /D WIN32 /D _DEBUG /D _WINDOWS /D _UNICODE /D UNICODE /Gm /EHsc /RTC1 /MDd /GS /fp:precise /Zc:wchar_t /Zc:forScope /Fo"DEBUG\\" /Fd"DEBUG\VC120.PDB" /Gd /TP /analyze- C:\USERS\WOLFF\DESKTOP\LUNACH1_10\LUNACH1_10\COMMON\D3DAPP.CPP
^C:\USERS\WOLFF\DESKTOP\LUNACH1_10\LUNACH1_10\COMMON\D3DUTIL.CPP
/c /I..\LunaW8\Common /ZI /nologo /W3 /WX- /Od /Oy- /D WIN32 /D _DEBUG /D _WINDOWS /D _UNICODE /D UNICODE /Gm /EHsc /RTC1 /MDd /GS /fp:precise /Zc:wchar_t /Zc:forScope /Fo"DEBUG\\" /Fd"DEBUG\VC120.PDB" /Gd /TP /analyze- C:\USERS\WOLFF\DESKTOP\LUNACH1_10\LUNACH1_10\COMMON\D3DUTIL.CPP
^C:\USERS\WOLFF\DESKTOP\LUNACH1_10\LUNACH1_10\COMMON\GAMETIMER.CPP
/c /I..\LunaW8\Common /ZI /nologo /W3 /WX- /Od /Oy- /D WIN32 /D _DEBUG /D _WINDOWS /D _UNICODE /D UNICODE /Gm /EHsc /RTC1 /MDd /GS /fp:precise /Zc:wchar_t /Zc:forScope /Fo"DEBUG\\" /Fd"DEBUG\VC120.PDB" /Gd /TP /analyze- C:\USERS\WOLFF\DESKTOP\LUNACH1_10\LUNACH1_10\COMMON\GAMETIMER.CPP
^C:\USERS\WOLFF\DESKTOP\LUNACH1_10\LUNACH1_10\COMMON\GEOMETRYGENERATOR.CPP
/c /I..\LunaW8\Common /ZI /nologo /W3 /WX- /Od /Oy- /D WIN32 /D _DEBUG /D _WINDOWS /D _UNICODE /D UNICODE /Gm /EHsc /RTC1 /MDd /GS /fp:precise /Zc:wchar_t /Zc:forScope /Fo"DEBUG\\" /Fd"DEBUG\VC120.PDB" /Gd /TP /analyze- C:\USERS\WOLFF\DESKTOP\LUNACH1_10\LUNACH1_10\COMMON\GEOMETRYGENERATOR.CPP
^C:\USERS\WOLFF\DESKTOP\LUNACH1_10\LUNACH1_10\COMMON\MATHHELPER.CPP
/c /I..\LunaW8\Common /ZI /nologo /W3 /WX- /Od /Oy- /D WIN32 /D _DEBUG /D _WINDOWS /D _UNICODE /D UNICODE /Gm /EHsc /RTC1 /MDd /GS /fp:precise /Zc:wchar_t /Zc:forScope /Fo"DEBUG\\" /Fd"DEBUG\VC120.PDB" /Gd /TP /analyze- C:\USERS\WOLFF\DESKTOP\LUNACH1_10\LUNACH1_10\COMMON\MATHHELPER.CPP
^C:\USERS\WOLFF\DESKTOP\LUNACH1_10\LUNACH1_10\CHAPTER 6 DRAWING IN DIRECT3D\BOX - KOPIE\BOXDEMO.CPP
/c /I..\LunaW8\Common /ZI /nologo /W3 /WX- /Od /Oy- /D WIN32 /D _DEBUG /D _WINDOWS /D _UNICODE /D UNICODE /Gm /EHsc /RTC1 /MDd /GS /fp:precise /Zc:wchar_t /Zc:forScope /Fo"DEBUG\\" /Fd"DEBUG\VC120.PDB" /Gd /TP /analyze- C:\USERS\WOLFF\DESKTOP\LUNACH1_10\LUNACH1_10\CHAPTER 6 DRAWING IN DIRECT3D\BOX - KOPIE\BOXDEMO.CPP
^C:\USERS\WOLFF\DESKTOP\LUNACH1_10\LUNACH1_10\CHAPTER 6 DRAWING IN DIRECT3D\BOX - KOPIE\OLDBOXDEMO.CPP
/c /I..\LunaW8\Common /ZI /nologo /W3 /WX- /Od /Oy- /D WIN32 /D _DEBUG /D _WINDOWS /D _UNICODE /D UNICODE /Gm /EHsc /RTC1 /MDd /GS /fp:precise /Zc:wchar_t /Zc:forScope /Fo"DEBUG\\" /Fd"DEBUG\VC120.PDB" /Gd /TP /analyze- C:\USERS\WOLFF\DESKTOP\LUNACH1_10\LUNACH1_10\CHAPTER 6 DRAWING IN DIRECT3D\BOX - KOPIE\OLDBOXDEMO.CPP
