^C:\USERS\WOLFF\DESKTOP\LUNACH1_10\LUNACH1_10\CHAPTER 6 DRAWING IN DIRECT3D\BOX\DEBUG\BOXDEMO.OBJ|C:\USERS\WOLFF\DESKTOP\LUNACH1_10\LUNACH1_10\CHAPTER 6 DRAWING IN DIRECT3D\BOX\DEBUG\D3DAPP.OBJ|C:\USERS\WOLFF\DESKTOP\LUNACH1_10\LUNACH1_10\CHAPTER 6 DRAWING IN DIRECT3D\BOX\DEBUG\D3DUTIL.OBJ|C:\USERS\WOLFF\DESKTOP\LUNACH1_10\LUNACH1_10\CHAPTER 6 DRAWING IN DIRECT3D\BOX\DEBUG\GAMETIMER.OBJ|C:\USERS\WOLFF\DESKTOP\LUNACH1_10\LUNACH1_10\CHAPTER 6 DRAWING IN DIRECT3D\BOX\DEBUG\GEOMETRYGENERATOR.OBJ|C:\USERS\WOLFF\DESKTOP\LUNACH1_10\LUNACH1_10\CHAPTER 6 DRAWING IN DIRECT3D\BOX\DEBUG\MATHHELPER.OBJ|C:\USERS\WOLFF\DESKTOP\LUNACH1_10\LUNACH1_10\CHAPTER 6 DRAWING IN DIRECT3D\BOX\DEBUG\OLDBOXDEMO.OBJ
C:\WINDOWS\GLOBALIZATION\SORTING\SORTDEFAULT.NLS
C:\PROGRAM FILES (X86)\WINDOWS KITS\8.1\LIB\WINV6.3\UM\X86\D3D11.LIB
C:\PROGRAM FILES (X86)\MICROSOFT DIRECTX SDK (JUNE 2010)\LIB\X86\D3DX11D.LIB
C:\PROGRAM FILES (X86)\WINDOWS KITS\8.1\LIB\WINV6.3\UM\X86\D3DCOMPILER.LIB
C:\USERS\WOLFF\DESKTOP\LUNACH1_10\LUNACH1_10\COMMON\EFFECTS11D.LIB
C:\PROGRAM FILES (X86)\MICROSOFT DIRECTX SDK (JUNE 2010)\LIB\X86\DXERR.LIB
C:\PROGRAM FILES (X86)\WINDOWS KITS\8.1\LIB\WINV6.3\UM\X86\DXGI.LIB
C:\PROGRAM FILES (X86)\WINDOWS KITS\8.1\LIB\WINV6.3\UM\X86\DXGUID.LIB
C:\PROGRAM FILES (X86)\WINDOWS KITS\8.1\LIB\WINV6.3\UM\X86\KERNEL32.LIB
C:\PROGRAM FILES (X86)\WINDOWS KITS\8.1\LIB\WINV6.3\UM\X86\USER32.LIB
C:\PROGRAM FILES (X86)\WINDOWS KITS\8.1\LIB\WINV6.3\UM\X86\GDI32.LIB
C:\PROGRAM FILES (X86)\WINDOWS KITS\8.1\LIB\WINV6.3\UM\X86\WINSPOOL.LIB
C:\PROGRAM FILES (X86)\WINDOWS KITS\8.1\LIB\WINV6.3\UM\X86\COMDLG32.LIB
C:\PROGRAM FILES (X86)\WINDOWS KITS\8.1\LIB\WINV6.3\UM\X86\ADVAPI32.LIB
C:\PROGRAM FILES (X86)\WINDOWS KITS\8.1\LIB\WINV6.3\UM\X86\SHELL32.LIB
C:\PROGRAM FILES (X86)\WINDOWS KITS\8.1\LIB\WINV6.3\UM\X86\OLE32.LIB
C:\PROGRAM FILES (X86)\WINDOWS KITS\8.1\LIB\WINV6.3\UM\X86\OLEAUT32.LIB
C:\PROGRAM FILES (X86)\WINDOWS KITS\8.1\LIB\WINV6.3\UM\X86\UUID.LIB
C:\PROGRAM FILES (X86)\WINDOWS KITS\8.1\LIB\WINV6.3\UM\X86\ODBC32.LIB
C:\PROGRAM FILES (X86)\WINDOWS KITS\8.1\LIB\WINV6.3\UM\X86\ODBCCP32.LIB
C:\USERS\WOLFF\DESKTOP\LUNACH1_10\LUNACH1_10\CHAPTER 6 DRAWING IN DIRECT3D\BOX\DEBUG\D3DAPP.OBJ
C:\USERS\WOLFF\DESKTOP\LUNACH1_10\LUNACH1_10\CHAPTER 6 DRAWING IN DIRECT3D\BOX\DEBUG\D3DUTIL.OBJ
C:\USERS\WOLFF\DESKTOP\LUNACH1_10\LUNACH1_10\CHAPTER 6 DRAWING IN DIRECT3D\BOX\DEBUG\GAMETIMER.OBJ
C:\USERS\WOLFF\DESKTOP\LUNACH1_10\LUNACH1_10\CHAPTER 6 DRAWING IN DIRECT3D\BOX\DEBUG\GEOMETRYGENERATOR.OBJ
C:\USERS\WOLFF\DESKTOP\LUNACH1_10\LUNACH1_10\CHAPTER 6 DRAWING IN DIRECT3D\BOX\DEBUG\MATHHELPER.OBJ
C:\USERS\WOLFF\DESKTOP\LUNACH1_10\LUNACH1_10\CHAPTER 6 DRAWING IN DIRECT3D\BOX\DEBUG\BOXDEMO.OBJ
C:\USERS\WOLFF\DESKTOP\LUNACH1_10\LUNACH1_10\CHAPTER 6 DRAWING IN DIRECT3D\BOX\DEBUG\OLDBOXDEMO.OBJ
C:\WINDOWS\SYSTEM32\TZRES.DLL
C:\PROGRAM FILES (X86)\MICROSOFT VISUAL STUDIO 12.0\VC\LIB\MSVCPRTD.LIB
C:\PROGRAM FILES (X86)\MICROSOFT VISUAL STUDIO 12.0\VC\LIB\MSVCRTD.LIB
C:\PROGRAM FILES (X86)\MICROSOFT VISUAL STUDIO 12.0\VC\LIB\OLDNAMES.LIB
C:\PROGRAM FILES (X86)\MICROSOFT VISUAL STUDIO 12.0\VC\BIN\LINK.EXE
C:\PROGRAM FILES (X86)\WINDOWS KITS\8.1\BIN\X86\RC.EXE
C:\PROGRAM FILES (X86)\MICROSOFT VISUAL STUDIO 12.0\VC\BIN\CVTRES.EXE
C:\PROGRAM FILES (X86)\MICROSOFT VISUAL STUDIO 12.0\VC\BIN\1033\LINKUI.DLL
