c:\users\wolff\desktop\lunach1_10\lunach1_10\chapter 6 drawing in direct3d\skull\debug\vc120.pdb
c:\users\wolff\desktop\lunach1_10\lunach1_10\chapter 6 drawing in direct3d\skull\debug\vc120.idb
c:\users\wolff\desktop\lunach1_10\lunach1_10\chapter 6 drawing in direct3d\skull\debug\d3dapp.obj
c:\users\wolff\desktop\lunach1_10\lunach1_10\chapter 6 drawing in direct3d\skull\debug\d3dutil.obj
c:\users\wolff\desktop\lunach1_10\lunach1_10\chapter 6 drawing in direct3d\skull\debug\gametimer.obj
c:\users\wolff\desktop\lunach1_10\lunach1_10\chapter 6 drawing in direct3d\skull\debug\geometrygenerator.obj
c:\users\wolff\desktop\lunach1_10\lunach1_10\chapter 6 drawing in direct3d\skull\debug\mathhelper.obj
c:\users\wolff\desktop\lunach1_10\lunach1_10\chapter 6 drawing in direct3d\skull\debug\skulldemo.obj
c:\users\wolff\desktop\lunach1_10\lunach1_10\chapter 6 drawing in direct3d\skull\fx\color.fxo
c:\users\wolff\desktop\lunach1_10\lunach1_10\debug\chapter 06 skull.ilk
c:\users\wolff\desktop\lunach1_10\lunach1_10\debug\chapter 06 skull.exe
c:\users\wolff\desktop\lunach1_10\lunach1_10\debug\chapter 06 skull.pdb
c:\users\wolff\desktop\lunach1_10\lunach1_10\chapter 6 drawing in direct3d\skull\debug\chapter 06 skull.tlog\cl.command.1.tlog
c:\users\wolff\desktop\lunach1_10\lunach1_10\chapter 6 drawing in direct3d\skull\debug\chapter 06 skull.tlog\cl.read.1.tlog
c:\users\wolff\desktop\lunach1_10\lunach1_10\chapter 6 drawing in direct3d\skull\debug\chapter 06 skull.tlog\cl.write.1.tlog
c:\users\wolff\desktop\lunach1_10\lunach1_10\chapter 6 drawing in direct3d\skull\debug\chapter 06 skull.tlog\custombuild.command.1.tlog
c:\users\wolff\desktop\lunach1_10\lunach1_10\chapter 6 drawing in direct3d\skull\debug\chapter 06 skull.tlog\custombuild.read.1.tlog
c:\users\wolff\desktop\lunach1_10\lunach1_10\chapter 6 drawing in direct3d\skull\debug\chapter 06 skull.tlog\custombuild.write.1.tlog
c:\users\wolff\desktop\lunach1_10\lunach1_10\chapter 6 drawing in direct3d\skull\debug\chapter 06 skull.tlog\link.command.1.tlog
c:\users\wolff\desktop\lunach1_10\lunach1_10\chapter 6 drawing in direct3d\skull\debug\chapter 06 skull.tlog\link.read.1.tlog
c:\users\wolff\desktop\lunach1_10\lunach1_10\chapter 6 drawing in direct3d\skull\debug\chapter 06 skull.tlog\link.write.1.tlog
