^C:\USERS\WOLFF\DOCUMENTS\ADVANCED-GRAPHICS-PROGRAMMING\AGP PROJECT\LUNACH1_10\COMMON\D3DAPP.CPP
/c /ZI /nologo /W3 /WX- /Od /Oy- /D WIN32 /D _DEBUG /D _WINDOWS /D _UNICODE /D UNICODE /Gm /EHsc /RTC1 /MDd /GS /fp:precise /Zc:wchar_t /Zc:forScope /Fo"DEBUG\\" /Fd"DEBUG\VC120.PDB" /Gd /TP /analyze- C:\USERS\WOLFF\DOCUMENTS\ADVANCED-GRAPHICS-PROGRAMMING\AGP PROJECT\LUNACH1_10\COMMON\D3DAPP.CPP
^C:\USERS\WOLFF\DOCUMENTS\ADVANCED-GRAPHICS-PROGRAMMING\AGP PROJECT\LUNACH1_10\COMMON\D3DUTIL.CPP
/c /ZI /nologo /W3 /WX- /Od /Oy- /D WIN32 /D _DEBUG /D _WINDOWS /D _UNICODE /D UNICODE /Gm /EHsc /RTC1 /MDd /GS /fp:precise /Zc:wchar_t /Zc:forScope /Fo"DEBUG\\" /Fd"DEBUG\VC120.PDB" /Gd /TP /analyze- C:\USERS\WOLFF\DOCUMENTS\ADVANCED-GRAPHICS-PROGRAMMING\AGP PROJECT\LUNACH1_10\COMMON\D3DUTIL.CPP
^C:\USERS\WOLFF\DOCUMENTS\ADVANCED-GRAPHICS-PROGRAMMING\AGP PROJECT\LUNACH1_10\COMMON\GAMETIMER.CPP
/c /ZI /nologo /W3 /WX- /Od /Oy- /D WIN32 /D _DEBUG /D _WINDOWS /D _UNICODE /D UNICODE /Gm /EHsc /RTC1 /MDd /GS /fp:precise /Zc:wchar_t /Zc:forScope /Fo"DEBUG\\" /Fd"DEBUG\VC120.PDB" /Gd /TP /analyze- C:\USERS\WOLFF\DOCUMENTS\ADVANCED-GRAPHICS-PROGRAMMING\AGP PROJECT\LUNACH1_10\COMMON\GAMETIMER.CPP
^C:\USERS\WOLFF\DOCUMENTS\ADVANCED-GRAPHICS-PROGRAMMING\AGP PROJECT\LUNACH1_10\COMMON\GEOMETRYGENERATOR.CPP
/c /ZI /nologo /W3 /WX- /Od /Oy- /D WIN32 /D _DEBUG /D _WINDOWS /D _UNICODE /D UNICODE /Gm /EHsc /RTC1 /MDd /GS /fp:precise /Zc:wchar_t /Zc:forScope /Fo"DEBUG\\" /Fd"DEBUG\VC120.PDB" /Gd /TP /analyze- C:\USERS\WOLFF\DOCUMENTS\ADVANCED-GRAPHICS-PROGRAMMING\AGP PROJECT\LUNACH1_10\COMMON\GEOMETRYGENERATOR.CPP
^C:\USERS\WOLFF\DOCUMENTS\ADVANCED-GRAPHICS-PROGRAMMING\AGP PROJECT\LUNACH1_10\COMMON\MATHHELPER.CPP
/c /ZI /nologo /W3 /WX- /Od /Oy- /D WIN32 /D _DEBUG /D _WINDOWS /D _UNICODE /D UNICODE /Gm /EHsc /RTC1 /MDd /GS /fp:precise /Zc:wchar_t /Zc:forScope /Fo"DEBUG\\" /Fd"DEBUG\VC120.PDB" /Gd /TP /analyze- C:\USERS\WOLFF\DOCUMENTS\ADVANCED-GRAPHICS-PROGRAMMING\AGP PROJECT\LUNACH1_10\COMMON\MATHHELPER.CPP
^C:\USERS\WOLFF\DOCUMENTS\ADVANCED-GRAPHICS-PROGRAMMING\AGP PROJECT\LUNACH1_10\CHAPTER 6 DRAWING IN DIRECT3D\SKULL\SKULLDEMO.CPP
/c /ZI /nologo /W3 /WX- /Od /Oy- /D WIN32 /D _DEBUG /D _WINDOWS /D _UNICODE /D UNICODE /Gm /EHsc /RTC1 /MDd /GS /fp:precise /Zc:wchar_t /Zc:forScope /Fo"DEBUG\\" /Fd"DEBUG\VC120.PDB" /Gd /TP /analyze- C:\USERS\WOLFF\DOCUMENTS\ADVANCED-GRAPHICS-PROGRAMMING\AGP PROJECT\LUNACH1_10\CHAPTER 6 DRAWING IN DIRECT3D\SKULL\SKULLDEMO.CPP
