^C:\USERS\WOLFF\DOCUMENTS\ADVANCED-GRAPHICS-PROGRAMMING\AGP PROJECT\LUNACH1_10\CHAPTER 6 DRAWING IN DIRECT3D\BOX - KOPIE3\BOXDEMO.CPP|C:\USERS\WOLFF\DOCUMENTS\ADVANCED-GRAPHICS-PROGRAMMING\AGP PROJECT\LUNACH1_10\CHAPTER 6 DRAWING IN DIRECT3D\BOX - KOPIE3\OLDBOXDEMO.CPP|C:\USERS\WOLFF\DOCUMENTS\ADVANCED-GRAPHICS-PROGRAMMING\AGP PROJECT\LUNACH1_10\COMMON\D3DAPP.CPP|C:\USERS\WOLFF\DOCUMENTS\ADVANCED-GRAPHICS-PROGRAMMING\AGP PROJECT\LUNACH1_10\COMMON\D3DUTIL.CPP|C:\USERS\WOLFF\DOCUMENTS\ADVANCED-GRAPHICS-PROGRAMMING\AGP PROJECT\LUNACH1_10\COMMON\GAMETIMER.CPP|C:\USERS\WOLFF\DOCUMENTS\ADVANCED-GRAPHICS-PROGRAMMING\AGP PROJECT\LUNACH1_10\COMMON\GEOMETRYGENERATOR.CPP|C:\USERS\WOLFF\DOCUMENTS\ADVANCED-GRAPHICS-PROGRAMMING\AGP PROJECT\LUNACH1_10\COMMON\MATHHELPER.CPP
C:\USERS\WOLFF\DOCUMENTS\ADVANCED-GRAPHICS-PROGRAMMING\AGP PROJECT\LUNACH1_10\CHAPTER 6 DRAWING IN DIRECT3D\BOX - KOPIE3\DEBUG\VC120.PDB
C:\USERS\WOLFF\DOCUMENTS\ADVANCED-GRAPHICS-PROGRAMMING\AGP PROJECT\LUNACH1_10\CHAPTER 6 DRAWING IN DIRECT3D\BOX - KOPIE3\DEBUG\VC120.IDB
C:\USERS\WOLFF\DOCUMENTS\ADVANCED-GRAPHICS-PROGRAMMING\AGP PROJECT\LUNACH1_10\CHAPTER 6 DRAWING IN DIRECT3D\BOX - KOPIE3\DEBUG\D3DAPP.OBJ
C:\USERS\WOLFF\DOCUMENTS\ADVANCED-GRAPHICS-PROGRAMMING\AGP PROJECT\LUNACH1_10\CHAPTER 6 DRAWING IN DIRECT3D\BOX - KOPIE3\DEBUG\D3DUTIL.OBJ
C:\USERS\WOLFF\DOCUMENTS\ADVANCED-GRAPHICS-PROGRAMMING\AGP PROJECT\LUNACH1_10\CHAPTER 6 DRAWING IN DIRECT3D\BOX - KOPIE3\DEBUG\GAMETIMER.OBJ
C:\USERS\WOLFF\DOCUMENTS\ADVANCED-GRAPHICS-PROGRAMMING\AGP PROJECT\LUNACH1_10\CHAPTER 6 DRAWING IN DIRECT3D\BOX - KOPIE3\DEBUG\GEOMETRYGENERATOR.OBJ
C:\USERS\WOLFF\DOCUMENTS\ADVANCED-GRAPHICS-PROGRAMMING\AGP PROJECT\LUNACH1_10\CHAPTER 6 DRAWING IN DIRECT3D\BOX - KOPIE3\DEBUG\MATHHELPER.OBJ
C:\USERS\WOLFF\DOCUMENTS\ADVANCED-GRAPHICS-PROGRAMMING\AGP PROJECT\LUNACH1_10\CHAPTER 6 DRAWING IN DIRECT3D\BOX - KOPIE3\DEBUG\BOXDEMO.OBJ
C:\USERS\WOLFF\DOCUMENTS\ADVANCED-GRAPHICS-PROGRAMMING\AGP PROJECT\LUNACH1_10\CHAPTER 6 DRAWING IN DIRECT3D\BOX - KOPIE3\DEBUG\OLDBOXDEMO.OBJ
^C:\USERS\WOLFF\DOCUMENTS\ADVANCED-GRAPHICS-PROGRAMMING\AGP PROJECT\LUNACH1_10\COMMON\D3DAPP.CPP
C:\USERS\WOLFF\DOCUMENTS\ADVANCED-GRAPHICS-PROGRAMMING\AGP PROJECT\LUNACH1_10\CHAPTER 6 DRAWING IN DIRECT3D\BOX - KOPIE3\DEBUG\VC120.PDB
^C:\USERS\WOLFF\DOCUMENTS\ADVANCED-GRAPHICS-PROGRAMMING\AGP PROJECT\LUNACH1_10\COMMON\D3DUTIL.CPP
C:\USERS\WOLFF\DOCUMENTS\ADVANCED-GRAPHICS-PROGRAMMING\AGP PROJECT\LUNACH1_10\CHAPTER 6 DRAWING IN DIRECT3D\BOX - KOPIE3\DEBUG\VC120.PDB
^C:\USERS\WOLFF\DOCUMENTS\ADVANCED-GRAPHICS-PROGRAMMING\AGP PROJECT\LUNACH1_10\COMMON\GAMETIMER.CPP
C:\USERS\WOLFF\DOCUMENTS\ADVANCED-GRAPHICS-PROGRAMMING\AGP PROJECT\LUNACH1_10\CHAPTER 6 DRAWING IN DIRECT3D\BOX - KOPIE3\DEBUG\VC120.PDB
^C:\USERS\WOLFF\DOCUMENTS\ADVANCED-GRAPHICS-PROGRAMMING\AGP PROJECT\LUNACH1_10\COMMON\GEOMETRYGENERATOR.CPP
C:\USERS\WOLFF\DOCUMENTS\ADVANCED-GRAPHICS-PROGRAMMING\AGP PROJECT\LUNACH1_10\CHAPTER 6 DRAWING IN DIRECT3D\BOX - KOPIE3\DEBUG\VC120.PDB
^C:\USERS\WOLFF\DOCUMENTS\ADVANCED-GRAPHICS-PROGRAMMING\AGP PROJECT\LUNACH1_10\COMMON\MATHHELPER.CPP
C:\USERS\WOLFF\DOCUMENTS\ADVANCED-GRAPHICS-PROGRAMMING\AGP PROJECT\LUNACH1_10\CHAPTER 6 DRAWING IN DIRECT3D\BOX - KOPIE3\DEBUG\VC120.PDB
^C:\USERS\WOLFF\DOCUMENTS\ADVANCED-GRAPHICS-PROGRAMMING\AGP PROJECT\LUNACH1_10\CHAPTER 6 DRAWING IN DIRECT3D\BOX - KOPIE3\BOXDEMO.CPP
C:\USERS\WOLFF\DOCUMENTS\ADVANCED-GRAPHICS-PROGRAMMING\AGP PROJECT\LUNACH1_10\CHAPTER 6 DRAWING IN DIRECT3D\BOX - KOPIE3\DEBUG\VC120.PDB
^C:\USERS\WOLFF\DOCUMENTS\ADVANCED-GRAPHICS-PROGRAMMING\AGP PROJECT\LUNACH1_10\CHAPTER 6 DRAWING IN DIRECT3D\BOX - KOPIE3\OLDBOXDEMO.CPP
C:\USERS\WOLFF\DOCUMENTS\ADVANCED-GRAPHICS-PROGRAMMING\AGP PROJECT\LUNACH1_10\CHAPTER 6 DRAWING IN DIRECT3D\BOX - KOPIE3\DEBUG\VC120.PDB
