^C:\USERS\WOLFF\DESKTOP\LUNACH1_10\LUNACH1_10\CHAPTER 6 DRAWING IN DIRECT3D\SKULL\SKULLDEMO.CPP|C:\USERS\WOLFF\DESKTOP\LUNACH1_10\LUNACH1_10\COMMON\D3DAPP.CPP|C:\USERS\WOLFF\DESKTOP\LUNACH1_10\LUNACH1_10\COMMON\D3DUTIL.CPP|C:\USERS\WOLFF\DESKTOP\LUNACH1_10\LUNACH1_10\COMMON\GAMETIMER.CPP|C:\USERS\WOLFF\DESKTOP\LUNACH1_10\LUNACH1_10\COMMON\GEOMETRYGENERATOR.CPP|C:\USERS\WOLFF\DESKTOP\LUNACH1_10\LUNACH1_10\COMMON\MATHHELPER.CPP
C:\USERS\WOLFF\DESKTOP\LUNACH1_10\LUNACH1_10\CHAPTER 6 DRAWING IN DIRECT3D\SKULL\DEBUG\VC120.PDB
C:\USERS\WOLFF\DESKTOP\LUNACH1_10\LUNACH1_10\CHAPTER 6 DRAWING IN DIRECT3D\SKULL\DEBUG\VC120.IDB
C:\USERS\WOLFF\DESKTOP\LUNACH1_10\LUNACH1_10\CHAPTER 6 DRAWING IN DIRECT3D\SKULL\DEBUG\D3DAPP.OBJ
C:\USERS\WOLFF\DESKTOP\LUNACH1_10\LUNACH1_10\CHAPTER 6 DRAWING IN DIRECT3D\SKULL\DEBUG\D3DUTIL.OBJ
C:\USERS\WOLFF\DESKTOP\LUNACH1_10\LUNACH1_10\CHAPTER 6 DRAWING IN DIRECT3D\SKULL\DEBUG\GAMETIMER.OBJ
C:\USERS\WOLFF\DESKTOP\LUNACH1_10\LUNACH1_10\CHAPTER 6 DRAWING IN DIRECT3D\SKULL\DEBUG\GEOMETRYGENERATOR.OBJ
C:\USERS\WOLFF\DESKTOP\LUNACH1_10\LUNACH1_10\CHAPTER 6 DRAWING IN DIRECT3D\SKULL\DEBUG\MATHHELPER.OBJ
C:\USERS\WOLFF\DESKTOP\LUNACH1_10\LUNACH1_10\CHAPTER 6 DRAWING IN DIRECT3D\SKULL\DEBUG\SKULLDEMO.OBJ
^C:\USERS\WOLFF\DESKTOP\LUNACH1_10\LUNACH1_10\COMMON\D3DAPP.CPP
C:\USERS\WOLFF\DESKTOP\LUNACH1_10\LUNACH1_10\CHAPTER 6 DRAWING IN DIRECT3D\SKULL\DEBUG\VC120.PDB
^C:\USERS\WOLFF\DESKTOP\LUNACH1_10\LUNACH1_10\COMMON\D3DUTIL.CPP
C:\USERS\WOLFF\DESKTOP\LUNACH1_10\LUNACH1_10\CHAPTER 6 DRAWING IN DIRECT3D\SKULL\DEBUG\VC120.PDB
^C:\USERS\WOLFF\DESKTOP\LUNACH1_10\LUNACH1_10\COMMON\GAMETIMER.CPP
C:\USERS\WOLFF\DESKTOP\LUNACH1_10\LUNACH1_10\CHAPTER 6 DRAWING IN DIRECT3D\SKULL\DEBUG\VC120.PDB
^C:\USERS\WOLFF\DESKTOP\LUNACH1_10\LUNACH1_10\COMMON\GEOMETRYGENERATOR.CPP
C:\USERS\WOLFF\DESKTOP\LUNACH1_10\LUNACH1_10\CHAPTER 6 DRAWING IN DIRECT3D\SKULL\DEBUG\VC120.PDB
^C:\USERS\WOLFF\DESKTOP\LUNACH1_10\LUNACH1_10\COMMON\MATHHELPER.CPP
C:\USERS\WOLFF\DESKTOP\LUNACH1_10\LUNACH1_10\CHAPTER 6 DRAWING IN DIRECT3D\SKULL\DEBUG\VC120.PDB
^C:\USERS\WOLFF\DESKTOP\LUNACH1_10\LUNACH1_10\CHAPTER 6 DRAWING IN DIRECT3D\SKULL\SKULLDEMO.CPP
C:\USERS\WOLFF\DESKTOP\LUNACH1_10\LUNACH1_10\CHAPTER 6 DRAWING IN DIRECT3D\SKULL\DEBUG\VC120.PDB
C:\USERS\WOLFF\DESKTOP\LUNACH1_10\LUNACH1_10\CHAPTER 6 DRAWING IN DIRECT3D\SKULL\DEBUG\VC120.IDB
C:\USERS\WOLFF\DESKTOP\LUNACH1_10\LUNACH1_10\CHAPTER 6 DRAWING IN DIRECT3D\SKULL\DEBUG\SKULLDEMO.OBJ
