^C:\USERS\WOLFF\DESKTOP\LUNACH1_10\LUNACH1_10\CHAPTER 6 DRAWING IN DIRECT3D\SKULL\DEBUG\D3DAPP.OBJ|C:\USERS\WOLFF\DESKTOP\LUNACH1_10\LUNACH1_10\CHAPTER 6 DRAWING IN DIRECT3D\SKULL\DEBUG\D3DUTIL.OBJ|C:\USERS\WOLFF\DESKTOP\LUNACH1_10\LUNACH1_10\CHAPTER 6 DRAWING IN DIRECT3D\SKULL\DEBUG\GAMETIMER.OBJ|C:\USERS\WOLFF\DESKTOP\LUNACH1_10\LUNACH1_10\CHAPTER 6 DRAWING IN DIRECT3D\SKULL\DEBUG\GEOMETRYGENERATOR.OBJ|C:\USERS\WOLFF\DESKTOP\LUNACH1_10\LUNACH1_10\CHAPTER 6 DRAWING IN DIRECT3D\SKULL\DEBUG\MATHHELPER.OBJ|C:\USERS\WOLFF\DESKTOP\LUNACH1_10\LUNACH1_10\CHAPTER 6 DRAWING IN DIRECT3D\SKULL\DEBUG\SKULLDEMO.OBJ
C:\USERS\WOLFF\DESKTOP\LUNACH1_10\LUNACH1_10\DEBUG\CHAPTER 06 SKULL.ILK
C:\USERS\WOLFF\DESKTOP\LUNACH1_10\LUNACH1_10\DEBUG\CHAPTER 06 SKULL.EXE
C:\USERS\WOLFF\DESKTOP\LUNACH1_10\LUNACH1_10\DEBUG\CHAPTER 06 SKULL.PDB
