^C:\USERS\WOLFF\DESKTOP\LUNACH1_10\LUNACH1_10\CHAPTER 6 DRAWING IN DIRECT3D\WAVES\DEBUG\D3DAPP.OBJ|C:\USERS\WOLFF\DESKTOP\LUNACH1_10\LUNACH1_10\CHAPTER 6 DRAWING IN DIRECT3D\WAVES\DEBUG\D3DUTIL.OBJ|C:\USERS\WOLFF\DESKTOP\LUNACH1_10\LUNACH1_10\CHAPTER 6 DRAWING IN DIRECT3D\WAVES\DEBUG\GAMETIMER.OBJ|C:\USERS\WOLFF\DESKTOP\LUNACH1_10\LUNACH1_10\CHAPTER 6 DRAWING IN DIRECT3D\WAVES\DEBUG\GEOMETRYGENERATOR.OBJ|C:\USERS\WOLFF\DESKTOP\LUNACH1_10\LUNACH1_10\CHAPTER 6 DRAWING IN DIRECT3D\WAVES\DEBUG\MATHHELPER.OBJ|C:\USERS\WOLFF\DESKTOP\LUNACH1_10\LUNACH1_10\CHAPTER 6 DRAWING IN DIRECT3D\WAVES\DEBUG\WAVES.OBJ|C:\USERS\WOLFF\DESKTOP\LUNACH1_10\LUNACH1_10\CHAPTER 6 DRAWING IN DIRECT3D\WAVES\DEBUG\WAVESDEMO.OBJ
C:\USERS\WOLFF\DESKTOP\LUNACH1_10\LUNACH1_10\DEBUG\CHAPTER 06 WAVES.ILK
C:\USERS\WOLFF\DESKTOP\LUNACH1_10\LUNACH1_10\DEBUG\CHAPTER 06 WAVES.EXE
C:\USERS\WOLFF\DESKTOP\LUNACH1_10\LUNACH1_10\DEBUG\CHAPTER 06 WAVES.PDB
